EESchema Schematic File Version 4
EELAYER 30 0
EELAYER END
$Descr A3 16535 11693
encoding utf-8
Sheet 1 1
Title ""
Date ""
Rev ""
Comp ""
Comment1 ""
Comment2 ""
Comment3 ""
Comment4 ""
$EndDescr
$Comp
L Connector:Conn_01x13_Female J16
U 1 1 5FCDAA10
P 10550 3500
F 0 "J16" H 10578 3480 50  0000 L CNN
F 1 "Conn_01x13_Female" H 10578 3435 50  0001 L CNN
F 2 "Connector_PinHeader_2.54mm:PinHeader_1x13_P2.54mm_Vertical" H 10550 3500 50  0001 C CNN
F 3 "~" H 10550 3500 50  0001 C CNN
	1    10550 3500
	1    0    0    -1  
$EndComp
$Comp
L Connector:Conn_01x01_Male J4
U 1 1 5FCDDB6E
P 6000 1450
F 0 "J4" V 6062 1494 50  0000 L CNN
F 1 "Conn_01x01_Male" V 6153 1494 50  0000 L CNN
F 2 "Connector_PinHeader_2.54mm:PinHeader_1x01_P2.54mm_Vertical" H 6000 1450 50  0001 C CNN
F 3 "~" H 6000 1450 50  0001 C CNN
	1    6000 1450
	0    1    1    0   
$EndComp
$Comp
L Connector:Conn_01x01_Male J5
U 1 1 5FCDE426
P 6000 2050
F 0 "J5" V 6154 1962 50  0000 R CNN
F 1 "Conn_01x01_Male" V 6063 1962 50  0000 R CNN
F 2 "Connector_PinHeader_2.54mm:PinHeader_1x01_P2.54mm_Vertical" H 6000 2050 50  0001 C CNN
F 3 "~" H 6000 2050 50  0001 C CNN
	1    6000 2050
	0    -1   -1   0   
$EndComp
$Comp
L Connector:Conn_01x01_Male J7
U 1 1 5FCDE66A
P 7100 2050
F 0 "J7" V 7254 1962 50  0000 R CNN
F 1 "Conn_01x01_Male" V 7163 1962 50  0000 R CNN
F 2 "Connector_PinHeader_2.54mm:PinHeader_1x01_P2.54mm_Vertical" H 7100 2050 50  0001 C CNN
F 3 "~" H 7100 2050 50  0001 C CNN
	1    7100 2050
	0    -1   -1   0   
$EndComp
$Comp
L Connector:Conn_01x01_Male J6
U 1 1 5FCDE953
P 7100 1450
F 0 "J6" V 7162 1494 50  0000 L CNN
F 1 "Conn_01x01_Male" V 7253 1494 50  0000 L CNN
F 2 "Connector_PinHeader_2.54mm:PinHeader_1x01_P2.54mm_Vertical" H 7100 1450 50  0001 C CNN
F 3 "~" H 7100 1450 50  0001 C CNN
	1    7100 1450
	0    1    1    0   
$EndComp
NoConn ~ 3500 2050
Connection ~ 6000 1850
Wire Wire Line
	6000 1850 7100 1850
Connection ~ 7100 1850
Wire Wire Line
	7100 1850 8100 1850
Text Label 5250 1850 0    50   ~ 0
GND
Text Label 5250 1650 0    50   ~ 0
12V
$Comp
L A4988_STEPPER_MOTOR_DRIVER_CARRIER:A4988_STEPPER_MOTOR_DRIVER_CARRIER U1
U 1 1 5FD01FE7
P 4300 4550
F 0 "U1" H 4300 5417 50  0000 C CNN
F 1 "DRIVER_X" H 4300 5326 50  0000 C CNN
F 2 "A4988:MODULE_A4988_STEPPER_MOTOR_DRIVER_CARRIER" H 4300 4550 50  0001 L BNN
F 3 "" H 4300 4550 50  0001 L BNN
F 4 "Stepper motor controler; IC: A4988; 1A; Uin mot: 8÷35V" H 4300 4550 50  0001 L BNN "DESCRIPTION"
F 5 "Unavailable" H 4300 4550 50  0001 L BNN "AVAILABILITY"
F 6 "None" H 4300 4550 50  0001 L BNN "PACKAGE"
F 7 "A4988 STEPPER MOTOR DRIVER CARRIER" H 4300 4550 50  0001 L BNN "MP"
F 8 "None" H 4300 4550 50  0001 L BNN "PRICE"
F 9 "Pololu" H 4300 4550 50  0001 L BNN "MF"
	1    4300 4550
	1    0    0    -1  
$EndComp
$Comp
L A4988_STEPPER_MOTOR_DRIVER_CARRIER:A4988_STEPPER_MOTOR_DRIVER_CARRIER U2
U 1 1 5FD01FF3
P 4300 6350
F 0 "U2" H 4300 7217 50  0000 C CNN
F 1 "DRIVER_Y" H 4300 7126 50  0000 C CNN
F 2 "A4988:MODULE_A4988_STEPPER_MOTOR_DRIVER_CARRIER" H 4300 6350 50  0001 L BNN
F 3 "" H 4300 6350 50  0001 L BNN
F 4 "Stepper motor controler; IC: A4988; 1A; Uin mot: 8÷35V" H 4300 6350 50  0001 L BNN "DESCRIPTION"
F 5 "Unavailable" H 4300 6350 50  0001 L BNN "AVAILABILITY"
F 6 "None" H 4300 6350 50  0001 L BNN "PACKAGE"
F 7 "A4988 STEPPER MOTOR DRIVER CARRIER" H 4300 6350 50  0001 L BNN "MP"
F 8 "None" H 4300 6350 50  0001 L BNN "PRICE"
F 9 "Pololu" H 4300 6350 50  0001 L BNN "MF"
	1    4300 6350
	1    0    0    -1  
$EndComp
$Comp
L Device:C C1
U 1 1 5FD01FF9
P 5500 4750
F 0 "C1" V 5248 4750 50  0000 C CNN
F 1 "100 nF" V 5339 4750 50  0000 C CNN
F 2 "Capacitor_SMD:C_0805_2012Metric_Pad1.18x1.45mm_HandSolder" H 5538 4600 50  0001 C CNN
F 3 "~" H 5500 4750 50  0001 C CNN
F 4 "C49678" V 5500 4750 50  0001 C CNN "JLC"
	1    5500 4750
	0    1    1    0   
$EndComp
$Comp
L Device:CP C2
U 1 1 5FD0200B
P 5500 5150
F 0 "C2" V 5245 5150 50  0000 C CNN
F 1 "CP" V 5336 5150 50  0000 C CNN
F 2 "esp32-cnc:CP_Radial_D10.0mm_P5.00mm_nosik" H 5538 5000 50  0001 C CNN
F 3 "~" H 5500 5150 50  0001 C CNN
	1    5500 5150
	0    1    1    0   
$EndComp
Wire Wire Line
	5000 5150 5350 5150
Wire Wire Line
	5350 4750 5350 5150
Connection ~ 5350 5150
Wire Wire Line
	5350 4750 5350 1850
Connection ~ 5350 4750
Connection ~ 5350 1850
Wire Wire Line
	5350 1850 6000 1850
$Comp
L Device:C C3
U 1 1 5FD1741E
P 5500 6550
F 0 "C3" V 5248 6550 50  0000 C CNN
F 1 "100 nF" V 5339 6550 50  0000 C CNN
F 2 "Capacitor_SMD:C_0805_2012Metric_Pad1.18x1.45mm_HandSolder" H 5538 6400 50  0001 C CNN
F 3 "~" H 5500 6550 50  0001 C CNN
F 4 "C49678" V 5500 6550 50  0001 C CNN "JLC"
	1    5500 6550
	0    1    1    0   
$EndComp
$Comp
L Device:CP C4
U 1 1 5FD17424
P 5500 6950
F 0 "C4" V 5245 6950 50  0000 C CNN
F 1 "CP" V 5336 6950 50  0000 C CNN
F 2 "esp32-cnc:CP_Radial_D10.0mm_P5.00mm_nosik" H 5538 6800 50  0001 C CNN
F 3 "~" H 5500 6950 50  0001 C CNN
	1    5500 6950
	0    1    1    0   
$EndComp
Wire Wire Line
	5000 6950 5350 6950
Wire Wire Line
	5350 6550 5350 6950
Connection ~ 5350 6950
Wire Wire Line
	5350 6550 5350 5150
Connection ~ 5350 6550
Wire Wire Line
	5650 6950 5650 6550
Wire Wire Line
	5650 6550 5650 5850
Connection ~ 5650 6550
Wire Wire Line
	5650 5150 5650 4750
Connection ~ 5650 5150
Wire Wire Line
	5650 4750 5650 4050
Connection ~ 5650 4750
Wire Wire Line
	5650 1650 6000 1650
Wire Wire Line
	5000 4050 5650 4050
Connection ~ 5650 4050
Wire Wire Line
	5650 4050 5650 1650
Wire Wire Line
	5000 5850 5650 5850
Connection ~ 5650 5850
Wire Wire Line
	5650 5850 5650 5150
$Comp
L Connector_Generic:Conn_01x03 J1
U 1 1 5FD488B4
P 2900 6750
F 0 "J1" H 2818 6425 50  0000 C CNN
F 1 "JUMPERS" H 2818 6516 50  0000 C CNN
F 2 "Connector_PinHeader_2.54mm:PinHeader_1x03_P2.54mm_Vertical" H 2900 6750 50  0001 C CNN
F 3 "~" H 2900 6750 50  0001 C CNN
	1    2900 6750
	1    0    0    -1  
$EndComp
Wire Wire Line
	7950 1650 7950 2550
Wire Wire Line
	7950 2550 6000 2550
Wire Wire Line
	6000 2550 6000 3950
Wire Wire Line
	6000 5750 5000 5750
Wire Wire Line
	5000 3950 6000 3950
Connection ~ 6000 3950
Wire Wire Line
	6000 3950 6000 5750
Connection ~ 6000 5750
$Comp
L Connector_Generic:Conn_01x03 J2
U 1 1 5FD3FF1D
P 3200 6750
F 0 "J2" H 3118 7067 50  0000 C CNN
F 1 "MICROSTEP_Y" H 3118 6976 50  0000 C CNN
F 2 "Connector_PinHeader_2.54mm:PinHeader_1x03_P2.54mm_Vertical" H 3200 6750 50  0001 C CNN
F 3 "~" H 3200 6750 50  0001 C CNN
	1    3200 6750
	-1   0    0    -1  
$EndComp
Wire Wire Line
	2700 6650 2700 6750
Connection ~ 2700 6750
Wire Wire Line
	2700 6750 2700 6850
Text Label 10200 2900 2    50   ~ 0
VP
Text Label 10200 3000 2    50   ~ 0
VN
Text Label 10200 3100 2    50   ~ 0
EN
Text Label 10200 3200 2    50   ~ 0
34
Text Label 10200 3300 2    50   ~ 0
35
Text Label 10200 3400 2    50   ~ 0
32
Text Label 10200 3500 2    50   ~ 0
33
Text Label 10200 3600 2    50   ~ 0
25
Text Label 10200 3700 2    50   ~ 0
26
Text Label 10200 3800 2    50   ~ 0
27
Text Label 10200 3900 2    50   ~ 0
14
Text Label 10200 4000 2    50   ~ 0
12
Text Label 10200 4100 2    50   ~ 0
GND
Text Label 11950 3000 0    50   ~ 0
22
Text Label 11950 3100 0    50   ~ 0
19
Text Label 11950 3200 0    50   ~ 0
23
Text Label 11950 3300 0    50   ~ 0
18
Text Label 11950 3400 0    50   ~ 0
5
Text Label 11950 3500 0    50   ~ 0
17
Text Label 11950 3600 0    50   ~ 0
16
Text Label 11950 3700 0    50   ~ 0
4
Text Label 11950 3800 0    50   ~ 0
0
Text Label 11950 3900 0    50   ~ 0
2
Text Label 11950 4000 0    50   ~ 0
15
Text Label 11950 4100 0    50   ~ 0
13
Text Notes 10850 3550 0    50   ~ 0
   LOLIN\nESP32 Lite
Wire Wire Line
	11750 3700 11950 3700
Wire Wire Line
	11750 3600 11950 3600
Wire Wire Line
	11750 3500 11950 3500
Wire Wire Line
	11750 3400 11950 3400
Wire Wire Line
	11750 3300 11950 3300
Wire Wire Line
	11750 3200 11950 3200
Wire Wire Line
	11750 3100 11950 3100
Wire Wire Line
	11750 3000 11950 3000
Wire Wire Line
	11750 3800 11950 3800
Wire Wire Line
	11750 3900 11950 3900
Wire Wire Line
	11750 4000 11950 4000
Wire Wire Line
	11750 4100 11950 4100
Wire Wire Line
	10200 4100 10350 4100
Wire Wire Line
	10200 4000 10350 4000
Wire Wire Line
	10200 3900 10350 3900
Wire Wire Line
	10200 3800 10350 3800
Wire Wire Line
	10200 3700 10350 3700
Wire Wire Line
	10200 3600 10350 3600
Wire Wire Line
	10200 3500 10350 3500
Wire Wire Line
	10200 3400 10350 3400
Wire Wire Line
	10200 3300 10350 3300
Wire Wire Line
	10200 3200 10350 3200
Wire Wire Line
	10200 3100 10350 3100
Wire Wire Line
	10200 3000 10350 3000
Wire Wire Line
	10200 2900 10350 2900
Text Label 3600 6350 2    50   ~ 0
26
Text Label 3600 6450 2    50   ~ 0
27
Text Label 8350 5400 0    50   ~ 0
32
Text Label 8350 5950 0    50   ~ 0
33
$Comp
L Device:R R2
U 1 1 5FDF066A
P 8400 2350
F 0 "R2" H 8470 2396 50  0000 L CNN
F 1 "1 KΩ" H 8470 2305 50  0000 L CNN
F 2 "Resistor_SMD:R_0805_2012Metric_Pad1.20x1.40mm_HandSolder" V 8330 2350 50  0001 C CNN
F 3 "~" H 8400 2350 50  0001 C CNN
F 4 "C17604" H 8400 2350 50  0001 C CNN "JLC"
	1    8400 2350
	0    1    1    0   
$EndComp
$Comp
L Device:R R1
U 1 1 5FDEBE60
P 8400 2000
F 0 "R1" H 8470 2046 50  0000 L CNN
F 1 "1 KΩ" H 8470 1955 50  0000 L CNN
F 2 "Resistor_SMD:R_0805_2012Metric_Pad1.20x1.40mm_HandSolder" V 8330 2000 50  0001 C CNN
F 3 "~" H 8400 2000 50  0001 C CNN
F 4 "C17604" H 8400 2000 50  0001 C CNN "JLC"
	1    8400 2000
	0    1    1    0   
$EndComp
Text Label 8550 2350 0    50   ~ 0
35
Text Label 8550 2000 0    50   ~ 0
34
Text Label 3600 4650 2    50   ~ 0
25
Text Label 3600 4550 2    50   ~ 0
22
Text Label 8350 4850 0    50   ~ 0
17
Text Label 8350 4300 0    50   ~ 0
16
Text Label 8350 3750 0    50   ~ 0
13
Text Label 8350 3200 0    50   ~ 0
4
Wire Wire Line
	7750 5950 8350 5950
Wire Wire Line
	7750 5400 8350 5400
Wire Wire Line
	7750 4850 8350 4850
Wire Wire Line
	7750 4300 8350 4300
Wire Wire Line
	7750 3750 8350 3750
Wire Wire Line
	7750 3200 8350 3200
Connection ~ 8100 5200
Connection ~ 8100 4650
Wire Wire Line
	8100 5200 7750 5200
Wire Wire Line
	8100 4650 8100 5200
Connection ~ 8100 4100
Wire Wire Line
	8100 4650 7750 4650
Wire Wire Line
	8100 4100 8100 4650
Connection ~ 8100 3550
Wire Wire Line
	8100 4100 7750 4100
Wire Wire Line
	8100 3550 8100 4100
Connection ~ 8100 3000
Wire Wire Line
	8100 3550 7750 3550
Wire Wire Line
	8100 3000 8100 3550
Wire Wire Line
	8100 3000 7750 3000
Wire Wire Line
	8100 1850 8100 2000
Wire Wire Line
	7950 3100 7950 3650
Connection ~ 7950 3100
Wire Wire Line
	7750 3100 7950 3100
Wire Wire Line
	7950 3650 7950 4200
Connection ~ 7950 3650
Wire Wire Line
	7750 3650 7950 3650
Wire Wire Line
	7950 4200 7950 4750
Connection ~ 7950 4200
Wire Wire Line
	7750 4200 7950 4200
Wire Wire Line
	7950 4750 7950 5300
Connection ~ 7950 4750
Wire Wire Line
	7750 4750 7950 4750
Connection ~ 7950 5300
Wire Wire Line
	7750 5300 7950 5300
$Comp
L Connector_Generic:Conn_01x03 J12
U 1 1 5FD2FDFD
P 7550 5300
F 0 "J12" H 7468 4975 50  0000 C CNN
F 1 "PIN 32" H 7468 5066 50  0000 C CNN
F 2 "Connector_PinHeader_2.54mm:PinHeader_1x03_P2.54mm_Vertical" H 7550 5300 50  0001 C CNN
F 3 "~" H 7550 5300 50  0001 C CNN
	1    7550 5300
	-1   0    0    1   
$EndComp
$Comp
L Connector_Generic:Conn_01x03 J11
U 1 1 5FD2F4DF
P 7550 4750
F 0 "J11" H 7468 4425 50  0000 C CNN
F 1 "PIN 17" H 7468 4516 50  0000 C CNN
F 2 "Connector_PinHeader_2.54mm:PinHeader_1x03_P2.54mm_Vertical" H 7550 4750 50  0001 C CNN
F 3 "~" H 7550 4750 50  0001 C CNN
	1    7550 4750
	-1   0    0    1   
$EndComp
$Comp
L Connector_Generic:Conn_01x03 J10
U 1 1 5FD2F4D9
P 7550 4200
F 0 "J10" H 7468 3875 50  0000 C CNN
F 1 "PIN 16" H 7468 3966 50  0000 C CNN
F 2 "Connector_PinHeader_2.54mm:PinHeader_1x03_P2.54mm_Vertical" H 7550 4200 50  0001 C CNN
F 3 "~" H 7550 4200 50  0001 C CNN
	1    7550 4200
	-1   0    0    1   
$EndComp
$Comp
L Connector_Generic:Conn_01x03 J9
U 1 1 5FD26CF9
P 7550 3650
F 0 "J9" H 7468 3325 50  0000 C CNN
F 1 "PIN 13" H 7468 3416 50  0000 C CNN
F 2 "Connector_PinHeader_2.54mm:PinHeader_1x03_P2.54mm_Vertical" H 7550 3650 50  0001 C CNN
F 3 "~" H 7550 3650 50  0001 C CNN
	1    7550 3650
	-1   0    0    1   
$EndComp
$Comp
L Connector_Generic:Conn_01x03 J8
U 1 1 5FD261DF
P 7550 3100
F 0 "J8" H 7468 2775 50  0000 C CNN
F 1 "PIN 4" H 7468 2866 50  0000 C CNN
F 2 "Connector_PinHeader_2.54mm:PinHeader_1x03_P2.54mm_Vertical" H 7550 3100 50  0001 C CNN
F 3 "~" H 7550 3100 50  0001 C CNN
	1    7550 3100
	-1   0    0    1   
$EndComp
Connection ~ 7950 2550
Wire Wire Line
	7950 2550 7950 3100
$Comp
L Connector_Generic:Conn_01x02 J17
U 1 1 5FE30060
P 11000 2500
F 0 "J17" V 10964 2312 50  0000 R CNN
F 1 "3V3 POWER" V 10873 2312 50  0000 R CNN
F 2 "Connector_PinHeader_2.54mm:PinHeader_1x02_P2.54mm_Vertical" H 11000 2500 50  0001 C CNN
F 3 "~" H 11000 2500 50  0001 C CNN
	1    11000 2500
	0    -1   -1   0   
$EndComp
$Comp
L power:PWR_FLAG #FLG0101
U 1 1 5FE4ACCA
P 2700 2400
F 0 "#FLG0101" H 2700 2475 50  0001 C CNN
F 1 "PWR_FLAG" H 2700 2573 50  0000 C CNN
F 2 "" H 2700 2400 50  0001 C CNN
F 3 "~" H 2700 2400 50  0001 C CNN
	1    2700 2400
	1    0    0    -1  
$EndComp
$Comp
L power:GND #PWR0102
U 1 1 5FE4BC1A
P 2700 2700
F 0 "#PWR0102" H 2700 2450 50  0001 C CNN
F 1 "GND" H 2705 2527 50  0000 C CNN
F 2 "" H 2700 2700 50  0001 C CNN
F 3 "" H 2700 2700 50  0001 C CNN
	1    2700 2700
	1    0    0    -1  
$EndComp
Wire Wire Line
	2700 2400 2700 2700
NoConn ~ 11750 4000
NoConn ~ 11750 3800
Wire Wire Line
	10200 5600 10400 5600
Text Label 10200 5500 2    50   ~ 0
5
Wire Wire Line
	10200 5800 10400 5800
Text Label 10200 5600 2    50   ~ 0
23
Wire Wire Line
	10400 5500 10200 5500
Wire Wire Line
	10200 6000 10400 6000
Wire Wire Line
	10200 5900 10400 5900
Wire Wire Line
	10200 5700 10400 5700
NoConn ~ 10400 5400
Text Label 3500 2600 0    50   ~ 0
5V
$Comp
L power:PWR_FLAG #FLG02
U 1 1 5FECB6B8
P 3500 2700
F 0 "#FLG02" H 3500 2775 50  0001 C CNN
F 1 "PWR_FLAG" H 3500 2873 50  0000 C CNN
F 2 "" H 3500 2700 50  0001 C CNN
F 3 "~" H 3500 2700 50  0001 C CNN
	1    3500 2700
	-1   0    0    1   
$EndComp
Wire Wire Line
	3500 2400 3500 2700
$Comp
L Connector:Micro_SD_Card J19
U 1 1 5FE75A05
P 11300 5700
F 0 "J19" H 11250 6417 50  0000 C CNN
F 1 "Micro_SD_Card" H 11250 6326 50  0000 C CNN
F 2 "esp32-cnc:microSD_HC_Stavros_693072010801" H 12450 6000 50  0001 C CNN
F 3 "http://katalog.we-online.de/em/datasheet/693072010801.pdf" H 11300 5700 50  0001 C CNN
	1    11300 5700
	1    0    0    -1  
$EndComp
Wire Wire Line
	10200 6100 10400 6100
Text Label 10200 5700 2    50   ~ 0
3V3
Text Label 10200 6000 2    50   ~ 0
19
Text Label 10200 5800 2    50   ~ 0
18
Text Label 10200 5900 2    50   ~ 0
GND
NoConn ~ 10350 4000
NoConn ~ 10350 2900
NoConn ~ 10350 3100
$Comp
L Connector:Conn_01x13_Female J18
U 1 1 5FCDA157
P 11550 3500
F 0 "J18" H 11442 4193 50  0000 C CNN
F 1 "Conn_01x13_Female" H 11442 4194 50  0001 C CNN
F 2 "Connector_PinHeader_2.54mm:PinHeader_1x13_P2.54mm_Vertical" H 11550 3500 50  0001 C CNN
F 3 "~" H 11550 3500 50  0001 C CNN
	1    11550 3500
	-1   0    0    -1  
$EndComp
NoConn ~ 12050 6100
$Comp
L Connector:Screw_Terminal_01x04 J21
U 1 1 5FF405EC
P 6400 6150
F 0 "J21" H 6480 6142 50  0000 L CNN
F 1 "STEPPER_Y" H 6480 6051 50  0000 L CNN
F 2 "TerminalBlock:TerminalBlock_bornier-4_P5.08mm" H 6400 6150 50  0001 C CNN
F 3 "~" H 6400 6150 50  0001 C CNN
	1    6400 6150
	1    0    0    -1  
$EndComp
$Comp
L Connector:Screw_Terminal_01x04 J20
U 1 1 5FF42441
P 6400 4350
F 0 "J20" H 6480 4342 50  0000 L CNN
F 1 "STEPPER_X" H 6480 4251 50  0000 L CNN
F 2 "TerminalBlock:TerminalBlock_bornier-4_P5.08mm" H 6400 4350 50  0001 C CNN
F 3 "~" H 6400 4350 50  0001 C CNN
	1    6400 4350
	1    0    0    -1  
$EndComp
$Comp
L power:+12V #PWR0101
U 1 1 5FF685DA
P 3900 2400
F 0 "#PWR0101" H 3900 2250 50  0001 C CNN
F 1 "+12V" H 3915 2573 50  0000 C CNN
F 2 "" H 3900 2400 50  0001 C CNN
F 3 "" H 3900 2400 50  0001 C CNN
	1    3900 2400
	1    0    0    -1  
$EndComp
$Comp
L power:PWR_FLAG #FLG0102
U 1 1 5FF68AA9
P 3900 2700
F 0 "#FLG0102" H 3900 2775 50  0001 C CNN
F 1 "PWR_FLAG" H 3900 2873 50  0000 C CNN
F 2 "" H 3900 2700 50  0001 C CNN
F 3 "~" H 3900 2700 50  0001 C CNN
	1    3900 2700
	-1   0    0    1   
$EndComp
Wire Wire Line
	3900 2400 3900 2700
$Comp
L power:+5V #PWR0103
U 1 1 5FF73FC1
P 7950 1650
F 0 "#PWR0103" H 7950 1500 50  0001 C CNN
F 1 "+5V" H 7965 1823 50  0000 C CNN
F 2 "" H 7950 1650 50  0001 C CNN
F 3 "" H 7950 1650 50  0001 C CNN
	1    7950 1650
	1    0    0    -1  
$EndComp
$Comp
L power:+5V #PWR0104
U 1 1 5FF7757A
P 3500 2400
F 0 "#PWR0104" H 3500 2250 50  0001 C CNN
F 1 "+5V" H 3515 2573 50  0000 C CNN
F 2 "" H 3500 2400 50  0001 C CNN
F 3 "" H 3500 2400 50  0001 C CNN
	1    3500 2400
	1    0    0    -1  
$EndComp
Text Label 3900 2600 0    50   ~ 0
12V
Wire Wire Line
	3800 1850 4550 1850
NoConn ~ 10200 6100
$Comp
L A4988_STEPPER_MOTOR_DRIVER_CARRIER:A4988_STEPPER_MOTOR_DRIVER_CARRIER U3
U 1 1 5FD068E7
P 4300 8150
F 0 "U3" H 4300 9017 50  0000 C CNN
F 1 "DRIVER_Z" H 4300 8926 50  0000 C CNN
F 2 "A4988:MODULE_A4988_STEPPER_MOTOR_DRIVER_CARRIER" H 4300 8150 50  0001 L BNN
F 3 "" H 4300 8150 50  0001 L BNN
F 4 "Stepper motor controler; IC: A4988; 1A; Uin mot: 8÷35V" H 4300 8150 50  0001 L BNN "DESCRIPTION"
F 5 "Unavailable" H 4300 8150 50  0001 L BNN "AVAILABILITY"
F 6 "None" H 4300 8150 50  0001 L BNN "PACKAGE"
F 7 "A4988 STEPPER MOTOR DRIVER CARRIER" H 4300 8150 50  0001 L BNN "MP"
F 8 "None" H 4300 8150 50  0001 L BNN "PRICE"
F 9 "Pololu" H 4300 8150 50  0001 L BNN "MF"
	1    4300 8150
	1    0    0    -1  
$EndComp
$Comp
L Device:C C5
U 1 1 5FD068ED
P 5500 8350
F 0 "C5" V 5248 8350 50  0000 C CNN
F 1 "100 nF" V 5339 8350 50  0000 C CNN
F 2 "Capacitor_SMD:C_0805_2012Metric_Pad1.18x1.45mm_HandSolder" H 5538 8200 50  0001 C CNN
F 3 "~" H 5500 8350 50  0001 C CNN
F 4 "C49678" V 5500 8350 50  0001 C CNN "JLC"
	1    5500 8350
	0    1    1    0   
$EndComp
$Comp
L Device:CP C6
U 1 1 5FD068F3
P 5500 8750
F 0 "C6" V 5245 8750 50  0000 C CNN
F 1 "CP" V 5336 8750 50  0000 C CNN
F 2 "esp32-cnc:CP_Radial_D10.0mm_P5.00mm_nosik" H 5538 8600 50  0001 C CNN
F 3 "~" H 5500 8750 50  0001 C CNN
	1    5500 8750
	0    1    1    0   
$EndComp
Wire Wire Line
	5000 8750 5350 8750
Wire Wire Line
	5350 8350 5350 8750
Connection ~ 5350 8750
Wire Wire Line
	5350 8350 5350 6950
Connection ~ 5350 8350
Wire Wire Line
	5650 8750 5650 8350
Wire Wire Line
	5650 8350 5650 7650
Connection ~ 5650 8350
Wire Wire Line
	5000 7650 5650 7650
Connection ~ 5650 7650
Wire Wire Line
	5650 7650 5650 6950
Wire Wire Line
	6000 7550 5000 7550
Wire Wire Line
	6000 5750 6000 7550
Text Label 3600 8150 2    50   ~ 0
34
Text Label 3600 8250 2    50   ~ 0
35
$Comp
L Connector:Screw_Terminal_01x04 J14
U 1 1 5FD06928
P 6400 7950
F 0 "J14" H 6480 7942 50  0000 L CNN
F 1 "STEPPER_Z" H 6480 7851 50  0000 L CNN
F 2 "TerminalBlock:TerminalBlock_bornier-4_P5.08mm" H 6400 7950 50  0001 C CNN
F 3 "~" H 6400 7950 50  0001 C CNN
	1    6400 7950
	1    0    0    -1  
$EndComp
Wire Wire Line
	8100 2350 8250 2350
Connection ~ 8100 2350
Wire Wire Line
	8100 2350 8100 3000
Wire Wire Line
	8100 2000 8250 2000
Connection ~ 8100 2000
Wire Wire Line
	8100 2000 8100 2350
Text Label 11100 2700 3    50   ~ 0
GND
Text Label 11000 2700 3    50   ~ 0
3V3
Wire Wire Line
	2600 6750 2700 6750
Connection ~ 5650 6950
Wire Wire Line
	5000 7850 6200 7850
Wire Wire Line
	5000 7950 6200 7950
Wire Wire Line
	6200 8050 5000 8050
Wire Wire Line
	5000 8150 6200 8150
Wire Wire Line
	5000 6050 6200 6050
Wire Wire Line
	6200 6150 5000 6150
Wire Wire Line
	5000 6250 6200 6250
Wire Wire Line
	6200 6350 5000 6350
Wire Wire Line
	6200 4250 5000 4250
Wire Wire Line
	5000 4350 6200 4350
Wire Wire Line
	6200 4450 5000 4450
Wire Wire Line
	5000 4550 6200 4550
Wire Wire Line
	3400 6850 3600 6850
Wire Wire Line
	3400 6650 3600 6650
Wire Wire Line
	3400 6750 3600 6750
$Comp
L Connector_Generic:Conn_01x03 J22
U 1 1 5FE7EFDA
P 2900 8550
F 0 "J22" H 2818 8225 50  0000 C CNN
F 1 "JUMPERS" H 2818 8316 50  0000 C CNN
F 2 "Connector_PinHeader_2.54mm:PinHeader_1x03_P2.54mm_Vertical" H 2900 8550 50  0001 C CNN
F 3 "~" H 2900 8550 50  0001 C CNN
	1    2900 8550
	1    0    0    -1  
$EndComp
$Comp
L Connector_Generic:Conn_01x03 J24
U 1 1 5FE7EFE0
P 3200 8550
F 0 "J24" H 3118 8867 50  0000 C CNN
F 1 "MICROSTEP_Z" H 3118 8776 50  0000 C CNN
F 2 "Connector_PinHeader_2.54mm:PinHeader_1x03_P2.54mm_Vertical" H 3200 8550 50  0001 C CNN
F 3 "~" H 3200 8550 50  0001 C CNN
	1    3200 8550
	-1   0    0    -1  
$EndComp
Wire Wire Line
	2700 8450 2700 8550
Connection ~ 2700 8550
Wire Wire Line
	2700 8550 2700 8650
Wire Wire Line
	2600 8550 2700 8550
Wire Wire Line
	3400 8650 3600 8650
Wire Wire Line
	3400 8450 3600 8450
Wire Wire Line
	3400 8550 3600 8550
$Comp
L Connector_Generic:Conn_01x03 J15
U 1 1 5FE855FB
P 2900 4950
F 0 "J15" H 2818 4625 50  0000 C CNN
F 1 "JUMPERS" H 2818 4716 50  0000 C CNN
F 2 "Connector_PinHeader_2.54mm:PinHeader_1x03_P2.54mm_Vertical" H 2900 4950 50  0001 C CNN
F 3 "~" H 2900 4950 50  0001 C CNN
	1    2900 4950
	1    0    0    -1  
$EndComp
$Comp
L Connector_Generic:Conn_01x03 J23
U 1 1 5FE85601
P 3200 4950
F 0 "J23" H 3118 5267 50  0000 C CNN
F 1 "MICROSTEP_X" H 3118 5176 50  0000 C CNN
F 2 "Connector_PinHeader_2.54mm:PinHeader_1x03_P2.54mm_Vertical" H 3200 4950 50  0001 C CNN
F 3 "~" H 3200 4950 50  0001 C CNN
	1    3200 4950
	-1   0    0    -1  
$EndComp
Wire Wire Line
	2700 4850 2700 4950
Connection ~ 2700 4950
Wire Wire Line
	2700 4950 2700 5050
Wire Wire Line
	2600 4950 2700 4950
Text Label 2600 4950 2    50   ~ 0
5V
Wire Wire Line
	3400 5050 3600 5050
Wire Wire Line
	3400 4850 3600 4850
Wire Wire Line
	3400 4950 3600 4950
Text Label 2600 6750 2    50   ~ 0
5V
Text Label 2600 8550 2    50   ~ 0
5V
Wire Wire Line
	3400 7850 3600 7850
Wire Wire Line
	3400 6050 3600 6050
Wire Wire Line
	3400 4250 3600 4250
$Comp
L Connector:Barrel_Jack_MountingPin J3
U 1 1 5FCDD168
P 3500 1750
F 0 "J3" H 3557 2067 50  0000 C CNN
F 1 "Barrel_Jack_MountingPin" H 3557 1976 50  0000 C CNN
F 2 "Connector_BarrelJack:BarrelJack_Horizontal" H 3550 1710 50  0001 C CNN
F 3 "~" H 3550 1710 50  0001 C CNN
	1    3500 1750
	1    0    0    -1  
$EndComp
$Comp
L Connector:Screw_Terminal_01x02 J25
U 1 1 5FEBA138
P 4050 1150
F 0 "J25" H 3968 1367 50  0000 C CNN
F 1 "Screw_Terminal_01x02" H 3968 1276 50  0000 C CNN
F 2 "TerminalBlock:TerminalBlock_bornier-2_P5.08mm" H 4050 1150 50  0001 C CNN
F 3 "~" H 4050 1150 50  0001 C CNN
	1    4050 1150
	-1   0    0    -1  
$EndComp
Wire Wire Line
	4250 1150 4650 1150
Wire Wire Line
	4650 1150 4650 1650
Wire Wire Line
	4250 1250 4550 1250
Wire Wire Line
	4550 1250 4550 1850
Connection ~ 4550 1850
Wire Wire Line
	4550 1850 5350 1850
Text Label 13200 3200 3    50   ~ 0
GND
Text Label 11950 2900 0    50   ~ 0
3V3
$Comp
L Device:D D1
U 1 1 5FD0B634
P 4800 1650
F 0 "D1" H 4800 1433 50  0000 C CNN
F 1 "D" H 4800 1524 50  0000 C CNN
F 2 "Diode_SMD:D_SOD-123" H 4800 1650 50  0001 C CNN
F 3 "~" H 4800 1650 50  0001 C CNN
F 4 "C64898" H 4800 1650 50  0001 C CNN "JLC"
	1    4800 1650
	-1   0    0    1   
$EndComp
Wire Wire Line
	4950 1650 5650 1650
Connection ~ 5650 1650
Wire Wire Line
	3600 4350 3600 4400
Wire Wire Line
	3600 6250 3600 6200
Wire Wire Line
	3600 7950 3600 8000
NoConn ~ 10350 3000
Text Label 8350 6500 0    50   ~ 0
14
Wire Wire Line
	7750 6500 8350 6500
Wire Wire Line
	8100 6300 7750 6300
Wire Wire Line
	7750 6400 7950 6400
$Comp
L Connector_Generic:Conn_01x03 J26
U 1 1 5FD2F9D3
P 7550 6400
F 0 "J26" H 7468 6075 50  0000 C CNN
F 1 "PIN 14" H 7468 6166 50  0000 C CNN
F 2 "Connector_PinHeader_2.54mm:PinHeader_1x03_P2.54mm_Vertical" H 7550 6400 50  0001 C CNN
F 3 "~" H 7550 6400 50  0001 C CNN
	1    7550 6400
	-1   0    0    1   
$EndComp
Text Label 3400 4250 2    50   ~ 0
2
Text Label 3400 6050 2    50   ~ 0
2
Text Label 3400 7850 2    50   ~ 0
2
$Comp
L power:PWR_FLAG #FLG0103
U 1 1 5FD1B288
P 3600 6200
F 0 "#FLG0103" H 3600 6275 50  0001 C CNN
F 1 "PWR_FLAG" V 3600 6327 50  0000 L CNN
F 2 "" H 3600 6200 50  0001 C CNN
F 3 "~" H 3600 6200 50  0001 C CNN
	1    3600 6200
	0    -1   -1   0   
$EndComp
Connection ~ 3600 6200
Wire Wire Line
	3600 6200 3600 6150
$Comp
L power:PWR_FLAG #FLG0104
U 1 1 5FD1C431
P 3600 4400
F 0 "#FLG0104" H 3600 4475 50  0001 C CNN
F 1 "PWR_FLAG" V 3600 4527 50  0000 L CNN
F 2 "" H 3600 4400 50  0001 C CNN
F 3 "~" H 3600 4400 50  0001 C CNN
	1    3600 4400
	0    -1   -1   0   
$EndComp
Connection ~ 3600 4400
Wire Wire Line
	3600 4400 3600 4450
$Comp
L power:PWR_FLAG #FLG0105
U 1 1 5FD1D394
P 3600 8000
F 0 "#FLG0105" H 3600 8075 50  0001 C CNN
F 1 "PWR_FLAG" V 3600 8127 50  0000 L CNN
F 2 "" H 3600 8000 50  0001 C CNN
F 3 "~" H 3600 8000 50  0001 C CNN
	1    3600 8000
	0    -1   -1   0   
$EndComp
Connection ~ 3600 8000
Wire Wire Line
	3600 8000 3600 8050
$Comp
L Connector_Generic:Conn_01x03 J13
U 1 1 5FD2FE03
P 7550 5850
F 0 "J13" H 7468 5525 50  0000 C CNN
F 1 "PIN 33" H 7468 5616 50  0000 C CNN
F 2 "Connector_PinHeader_2.54mm:PinHeader_1x03_P2.54mm_Vertical" H 7550 5850 50  0001 C CNN
F 3 "~" H 7550 5850 50  0001 C CNN
	1    7550 5850
	-1   0    0    1   
$EndComp
Wire Wire Line
	8100 5200 8100 5750
Wire Wire Line
	8100 5750 8100 6300
Wire Wire Line
	7750 5750 8100 5750
Wire Wire Line
	7950 5300 7950 5850
Connection ~ 8100 5750
Wire Wire Line
	7750 5850 7950 5850
Connection ~ 7950 5850
Wire Wire Line
	7950 5850 7950 6400
Connection ~ 7950 1650
Wire Wire Line
	7100 1650 7950 1650
Wire Wire Line
	12900 2900 12750 2900
$Comp
L Device:C C7
U 1 1 5FD2259E
P 12750 3050
F 0 "C7" V 12498 3050 50  0000 C CNN
F 1 "100 nF" V 12589 3050 50  0000 C CNN
F 2 "Capacitor_SMD:C_0805_2012Metric_Pad1.18x1.45mm_HandSolder" H 12788 2900 50  0001 C CNN
F 3 "~" H 12750 3050 50  0001 C CNN
F 4 "C49678" V 12750 3050 50  0001 C CNN "JLC"
	1    12750 3050
	-1   0    0    1   
$EndComp
$Comp
L Regulator_Linear:AMS1117-3.3 U4
U 1 1 5FD0DA69
P 13200 2900
F 0 "U4" H 13200 3142 50  0000 C CNN
F 1 "AMS1117-3.3" H 13200 3051 50  0000 C CNN
F 2 "Package_TO_SOT_SMD:SOT-223-3_TabPin2" H 13200 3100 50  0001 C CNN
F 3 "http://www.advanced-monolithic.com/pdf/ds1117.pdf" H 13300 2650 50  0001 C CNN
F 4 "C6186" H 13200 2900 50  0001 C CNN "JLC"
	1    13200 2900
	-1   0    0    -1  
$EndComp
Text Label 13700 2900 0    50   ~ 0
5V
Connection ~ 12750 2900
Wire Wire Line
	12750 2900 12550 2900
Wire Wire Line
	12750 3200 13200 3200
Wire Wire Line
	13700 2900 13500 2900
$Comp
L Device:D D2
U 1 1 601E284A
P 12400 2900
F 0 "D2" H 12400 2683 50  0000 C CNN
F 1 "D" H 12400 2774 50  0000 C CNN
F 2 "Diode_SMD:D_SOD-123" H 12400 2900 50  0001 C CNN
F 3 "~" H 12400 2900 50  0001 C CNN
F 4 "C64898" H 12400 2900 50  0001 C CNN "JLC"
	1    12400 2900
	1    0    0    -1  
$EndComp
Wire Wire Line
	11750 2900 12250 2900
$Comp
L power:PWR_FLAG #FLG0106
U 1 1 602190B2
P 12250 2650
F 0 "#FLG0106" H 12250 2725 50  0001 C CNN
F 1 "PWR_FLAG" H 12250 2823 50  0000 C CNN
F 2 "" H 12250 2650 50  0001 C CNN
F 3 "~" H 12250 2650 50  0001 C CNN
	1    12250 2650
	1    0    0    -1  
$EndComp
Wire Wire Line
	12250 2650 12250 2900
Connection ~ 12250 2900
Text Label 12100 6300 0    50   ~ 0
GND
$Comp
L Device:D D3
U 1 1 614F9B8E
P 4200 1650
F 0 "D3" H 4200 1433 50  0000 C CNN
F 1 "D" H 4200 1524 50  0000 C CNN
F 2 "Diode_SMD:D_SOD-123" H 4200 1650 50  0001 C CNN
F 3 "~" H 4200 1650 50  0001 C CNN
F 4 "C64898" H 4200 1650 50  0001 C CNN "JLC"
	1    4200 1650
	-1   0    0    1   
$EndComp
Wire Wire Line
	3800 1650 4050 1650
Wire Wire Line
	4350 1650 4650 1650
Connection ~ 4650 1650
$EndSCHEMATC
